{
    "AWSTemplateFormatVersion": "2010-09-09",
    "Description": "Create Django fullstack app",
    "Parameters": {
        "InstanceType": {
            "Description": "WebServer EC2 instance type",
            "Type": "String",
            "Default": "t2.micro",
            "AllowedValues": [
                "t2.micro"
            ],
            "ConstraintDescription": "must be a valid EC2 instance type."
        },
        "KeyName": {
            "Description": "Name of an EC2 KeyPair to enable SSH access to the instance.",
            "Type": "AWS::EC2::KeyPair::KeyName",
            "ConstraintDescription": "must be the name of an existing EC2 KeyPair."
        },
        "SSHLocation": {
            "Description": " The IP address range that can be used to access the web server using SSH.",
            "Type": "String",
            "MinLength": "9",
            "MaxLength": "18",
            "Default": "0.0.0.0/0",
            "AllowedPattern": "(\\d{1,3})\\.(\\d{1,3})\\.(\\d{1,3})\\.(\\d{1,3})/(\\d{1,2})",
            "ConstraintDescription": "must be a valid IP CIDR range of the form x.x.x.x/x."
        },
        "AZs": {
            "Type": "CommaDelimitedList",
            "Default": "us-east-1a,us-east-1b",
            "Description": "The list of Availability Zones"
        },
        "MainAZ": {
            "Type": "String",
            "Default": "us-east-1",
            "Description": "Main Availability Zone"
        },
        "SecondAZ": {
            "Type": "String",
            "Default": "us-east-1",
            "Description": "Second Availability Zone"
        },
        "MainAZSub": {
            "Type": "String",
            "Default": "us-east-1a",
            "Description": "Main Availability Zone for subnet"
        },
        "SecondAZSub": {
            "Type": "String",
            "Default": "us-east-1b",
            "Description": "Second Availability Zone for subnet"
        },
        "InstanceWebQty": {
            "Description": "Max Quantity of Web servers",
            "Type": "Number",
            "Default": "5"
        },
        "InstanceWebDesiredQty": {
            "Description": "Quantity of Web servers",
            "Type": "Number",
            "Default": "2"
        },
        "InstanceWebType": {
            "Description": "Web EC2 instance type",
            "Type": "String",
            "Default": "t2.micro",
            "AllowedValues": [
                "t2.micro"
            ],
            "ConstraintDescription": "must be a valid EC2 instance type."
        },
        "DBClass": {
            "Default": "t2.micro",
            "Description": "Database instance class",
            "Type": "String",
            "AllowedValues": [
                "t2.micro"
            ],
            "ConstraintDescription": "must select a valid EC2 instance type."
        },
        "DbMasterUsername": {
            "Description": "The database master user name",
            "Type": "String",
            "Default": "root"
        },
        "DbMasterPassword": {
            "Description": "The database master password",
            "Type": "String",
            "Default": "Password123_"
        },
        "DbName": {
            "Description": "The database name",
            "Type": "String",
            "Default": "DB_NAME"
        }
    },
    "Resources": {
        "myVPC": {
            "Type": "AWS::EC2::VPC",
            "Properties": {
                "CidrBlock": "10.0.0.0/16",
                "EnableDnsSupport": "true",
                "EnableDnsHostnames": "true"
            },
            "Metadata": {
                "AWS::CloudFormation::Designer": {
                    "id": "86a9b39b-9782-40e1-af9c-6bd4dfd203ab"
                }
            }
        },
        "PublicSubnet": {
            "Type": "AWS::EC2::Subnet",
            "Properties": {
                "VpcId": {
                    "Ref": "myVPC"
                },
                "AvailabilityZone": {
                    "Ref": "MainAZSub"
                },
                "CidrBlock": "10.0.0.0/24"
            },
            "Metadata": {
                "AWS::CloudFormation::Designer": {
                    "id": "b07b75c0-98f2-43d3-90c1-bfa62f94e476"
                }
            }
        },
        "SecondPublicSubnet": {
            "Type": "AWS::EC2::Subnet",
            "Properties": {
                "VpcId": {
                    "Ref": "myVPC"
                },
                "AvailabilityZone": {
                    "Ref": "SecondAZSub"
                },
                "CidrBlock": "10.0.2.0/24"
            },
            "Metadata": {
                "AWS::CloudFormation::Designer": {
                    "id": "93d17258-33ab-4dde-a178-3c32b522ebb6"
                }
            }
        },
        "DbSubnet": {
            "Type": "AWS::EC2::Subnet",
            "Properties": {
                "CidrBlock": "10.0.1.0/24",
                "AvailabilityZone": {
                    "Ref": "MainAZSub"
                },
                "MapPublicIpOnLaunch": true,
                "VpcId": {
                    "Ref": "myVPC"
                }
            },
            "Metadata": {
                "AWS::CloudFormation::Designer": {
                    "id": "1c20fa3f-d3aa-47a8-b5e3-2b0d27709bbb"
                }
            }
        },
        "InternetGateway": {
            "Type": "AWS::EC2::InternetGateway",
            "Properties": {},
            "Metadata": {
                "AWS::CloudFormation::Designer": {
                    "id": "c33c9ece-fa7c-411c-8da5-3fe9dedd9f60"
                }
            }
        },
        "DbSubnetRouteTableAssociation": {
            "Type": "AWS::EC2::SubnetRouteTableAssociation",
            "Properties": {
                "RouteTableId": {
                    "Ref": "PublicRouteTable"
                },
                "SubnetId": {
                    "Ref": "DbSubnet"
                }
            },
            "Metadata": {
                "AWS::CloudFormation::Designer": {
                    "id": "3098bbe0-9256-4566-bfc5-198261062b8e"
                }
            }
        },
        "EC2VPCG45X0D": {
            "Type": "AWS::EC2::VPCGatewayAttachment",
            "Properties": {
                "InternetGatewayId": {
                    "Ref": "InternetGateway"
                },
                "VpcId": {
                    "Ref": "myVPC"
                }
            },
            "Metadata": {
                "AWS::CloudFormation::Designer": {
                    "id": "c5ebb5f1-1732-4b68-8407-62027ccf1ffb"
                }
            }
        },
        "PublicRouteTable": {
            "Type": "AWS::EC2::RouteTable",
            "Properties": {
                "VpcId": {
                    "Ref": "myVPC"
                }
            },
            "Metadata": {
                "AWS::CloudFormation::Designer": {
                    "id": "68ea407a-1664-4e35-bcb8-768a00f9310c"
                }
            }
        },
        "PublicRoute": {
            "Type": "AWS::EC2::Route",
            "Properties": {
                "DestinationCidrBlock": "0.0.0.0/0",
                "RouteTableId": {
                    "Ref": "PublicRouteTable"
                },
                "GatewayId": {
                    "Ref": "InternetGateway"
                }
            },
            "Metadata": {
                "AWS::CloudFormation::Designer": {
                    "id": "658e2380-aea6-409c-9ca8-b39654110e91"
                }
            },
            "DependsOn": [
                "EC2VPCG45X0D"
            ]
        },
        "EC2SRTA5A9I6": {
            "Type": "AWS::EC2::SubnetRouteTableAssociation",
            "Properties": {
                "RouteTableId": {
                    "Ref": "PublicRouteTable"
                },
                "SubnetId": {
                    "Ref": "PublicSubnet"
                }
            },
            "Metadata": {
                "AWS::CloudFormation::Designer": {
                    "id": "551a7c0a-9e61-4aa7-9724-fe74bbb133c8"
                }
            }
        },
        "SecondSubnetRouteTableAssociation": {
            "Type": "AWS::EC2::SubnetRouteTableAssociation",
            "Properties": {
                "RouteTableId": {
                    "Ref": "PublicRouteTable"
                },
                "SubnetId": {
                    "Ref": "SecondPublicSubnet"
                }
            },
            "Metadata": {
                "AWS::CloudFormation::Designer": {
                    "id": "f250766e-3a27-407c-9455-068310386f1a"
                }
            }
        },
        "WebServerSecurityGroup": {
            "Type": "AWS::EC2::SecurityGroup",
            "Properties": {
                "VpcId": {
                    "Ref": "myVPC"
                },
                "GroupDescription": "Allow access from HTTP and SSH traffic",
                "SecurityGroupIngress": [
                    {
                        "IpProtocol": "tcp",
                        "FromPort": "80",
                        "ToPort": "80",
                        "SourceSecurityGroupId": {
                            "Ref": "PublicLoadBalancerSecurityGroup"
                        }
                    },
                    {
                        "IpProtocol": "tcp",
                        "FromPort": "22",
                        "ToPort": "22",
                        "CidrIp": {
                            "Ref": "SSHLocation"
                        }
                    }
                ]
            },
            "Metadata": {
                "AWS::CloudFormation::Designer": {
                    "id": "eb6d3441-50de-4748-9acd-6534f6b59e0a"
                }
            }
        },
        "WebServerFleet": {
            "Type": "AWS::AutoScaling::AutoScalingGroup",
            "Properties": {
                "MinSize": {
                    "Ref": "InstanceWebDesiredQty"
                },
                "MaxSize": {
                    "Ref": "InstanceWebQty"
                },
                "DesiredCapacity": {
                    "Ref": "InstanceWebDesiredQty"
                },
                "AvailabilityZones": {
                    "Ref": "AZs"
                },
                "VPCZoneIdentifier": [
                    {
                        "Ref": "PublicSubnet"
                    },
                                        {
                        "Ref": "SecondPublicSubnet"
                    }
                ],
                "LoadBalancerNames": [
                    {
                        "Ref": "PublicElasticLoadBalancer"
                    }
                ],
                "LaunchConfigurationName": {
                    "Ref": "WebServerLaunchConfig"
                }
            },
            "Metadata": {
                "AWS::CloudFormation::Designer": {
                    "id": "b6c42c6b-cfd3-4914-874e-2be2342c7436"
                }
            },
            "DependsOn": [
                "PublicRoute",
                "DbInstance"
            ]
        },
        "WebServerLaunchConfig": {
            "Type": "AWS::AutoScaling::LaunchConfiguration",
            "Properties": {
                "InstanceType": {
                    "Ref": "InstanceType"
                },
                "ImageId": {
                    "Fn::FindInMap": [
                        "AWSRegionArch2AMI",
                        {
                            "Ref": "AWS::Region"
                        },
                        {
                            "Fn::FindInMap": [
                                "AWSInstanceType2Arch",
                                {
                                    "Ref": "InstanceType"
                                },
                                "Arch"
                            ]
                        }
                    ]
                },
                "KeyName": {
                    "Ref": "KeyName"
                },
                "AssociatePublicIpAddress": "true",
                "UserData": {
                    "Fn::Base64": {
                        "Fn::Join": [
                            "",
                            [
                                "#!/bin/bash\n",
                                "sudo yum update -y\n",
                                "sudo yum install -y git\n",
                                "echo -e 'Host gitlab.com\n\tStrictHostKeyChecking no' > ~/.ssh/config\n",
                                "git clone https://gitlab.com/vincentboulay/python-site-web.git\n",
                                "cd python-site-web\n",
                                "sudo yum install python36 python36-devel mysql mysql-devel gcc -y\n",
                                "python3 -m venv env\n",
                                ". env/bin/activate\n",
                                "pip3 install -r requirements.txt\n",
                                "cd charactersite\n",
                                "echo -e 'DB_NAME=\"",
                                {
                                    "Ref": "DbName"
                                },
                                "\"\nDB_URL=\"",
                                {
                                    "Fn::GetAtt": [
                                        "DbInstance",
                                        "PublicIp"
                                    ]
                                },
                                "\"\nDB_USER=\"",
                                {
                                    "Ref": "DbMasterUsername"
                                },
                                "\"\nDB_PASSWORD=\"",
                                {
                                    "Ref": "DbMasterPassword"
                                },
                                "\"' > charactersite/.env\n",
                                "python manage.py makemigrations characters\n",
                                "python manage.py migrate\n",
                                "sudo ../env/bin/python3 manage.py runserver 0.0.0.0:80\n",
                                "\n"
                            ]
                        ]
                    }
                },
                "SecurityGroups": [
                    {
                        "Ref": "WebServerSecurityGroup"
                    }
                ]
            },
            "Metadata": {
                "AWS::CloudFormation::Designer": {
                    "id": "b4faced5-8510-4a3e-b180-ce8220d82f2e"
                }
            }
        },
    "WebServerScaleUpPolicy" : {
      "Type" : "AWS::AutoScaling::ScalingPolicy",
      "Properties" : {
        "AdjustmentType" : "ChangeInCapacity",
        "AutoScalingGroupName" : { "Ref" : "WebServerFleet" },
        "Cooldown" : "60",
        "ScalingAdjustment" : "1"
      }
    },
    "WebServerScaleDownPolicy" : {
      "Type" : "AWS::AutoScaling::ScalingPolicy",
      "Properties" : {
        "AdjustmentType" : "ChangeInCapacity",
        "AutoScalingGroupName" : { "Ref" : "WebServerFleet" },
        "Cooldown" : "60",
        "ScalingAdjustment" : "-1"
      }
    },

    "CPUAlarmHigh": {
     "Type": "AWS::CloudWatch::Alarm",
     "Properties": {
        "AlarmDescription": "Scale-up if CPU > 90% for 10 minutes",
        "MetricName": "CPUUtilization",
        "Namespace": "AWS/EC2",
        "Statistic": "Average",
        "Period": "300",
        "EvaluationPeriods": "2",
        "Threshold": "90",
        "AlarmActions": [ { "Ref": "WebServerScaleUpPolicy" } ],
        "Dimensions": [
          {
            "Name": "AutoScalingGroupName",
            "Value": { "Ref": "WebServerFleet" }
          }
        ],
        "ComparisonOperator": "GreaterThanThreshold"
      }
    },
    "CPUAlarmLow": {
     "Type": "AWS::CloudWatch::Alarm",
     "Properties": {
        "AlarmDescription": "Scale-down if CPU < 50% for 10 minutes",
        "MetricName": "CPUUtilization",
        "Namespace": "AWS/EC2",
        "Statistic": "Average",
        "Period": "300",
        "EvaluationPeriods": "2",
        "Threshold": "50",
        "AlarmActions": [ { "Ref": "WebServerScaleDownPolicy" } ],
        "Dimensions": [
          {
            "Name": "AutoScalingGroupName",
            "Value": { "Ref": "WebServerFleet" }
          }
        ],
        "ComparisonOperator": "LessThanThreshold"
      }
    },
        "DbSecurityGroup": {
            "Type": "AWS::EC2::SecurityGroup",
            "Properties": {
                "GroupDescription": "MySQL security group",
                "VpcId": {
                    "Ref": "myVPC"
                },
                "SecurityGroupIngress": [
                    {
                        "CidrIp": "0.0.0.0/0",
                        "IpProtocol": "tcp",
                        "FromPort": 3306,
                        "ToPort": 3306
                    },
                    {
                        "CidrIp": "0.0.0.0/0",
                        "IpProtocol": "tcp",
                        "FromPort": 22,
                        "ToPort": 22
                    }
                ]
            },
            "Metadata": {
                "AWS::CloudFormation::Designer": {
                    "id": "6a6b662d-1595-43b2-ba88-bf6156419099"
                }
            }
        },
        "DbInstance": {
            "Type": "AWS::EC2::Instance",
            "Properties": {
                "KeyName": {
                    "Ref": "KeyName"
                },
                "InstanceType": {
                    "Ref": "InstanceType"
                },
                "AvailabilityZone": {
                    "Ref": "MainAZSub"
                },
                "ImageId": {
                    "Fn::FindInMap": [
                        "AWSRegionArch2AMIDB",
                        {
                            "Ref": "MainAZ"
                        },
                        {
                            "Fn::FindInMap": [
                                "AWSInstanceType2Arch",
                                {
                                    "Ref": "InstanceType"
                                },
                                "Arch"
                            ]
                        }
                    ]
                },
                "SecurityGroupIds": [
                    {
                        "Fn::GetAtt": [
                            "DbSecurityGroup",
                            "GroupId"
                        ]
                    }
                ],
                "SubnetId": {
                    "Ref": "DbSubnet"
                },
                "UserData": {
                    "Fn::Base64": {
                        "Fn::Join": [
                            "",
                            [
                                "#!/bin/bash\n",
                                "sudo su\n",
                                "yum install -y mysql\n",
                                "yum install -y wget\n",
                                "wget http://repo.mysql.com/mysql-community-release-el7-5.noarch.rpm\n",
                                "sudo rpm -ivh mysql-community-release-el7-5.noarch.rpm\n",
                                "yum install -y mysql-server --skip-broken\n",
                                "chkconfig mysqld on\n",
                                "service mysqld start\n",
                                "mysqladmin -u root password ",
                                {
                                    "Ref": "DbMasterPassword"
                                },
                                "\n",
                                "service mysqld start\n",
                                "mysql -u ",
                                {
                                    "Ref": "DbMasterUsername"
                                },
                                " -p",
                                {
                                    "Ref": "DbMasterPassword"
                                },
                                " -e \"CREATE USER '",
                                {
                                    "Ref": "DbMasterUsername"
                                },
                                "'@'%' IDENTIFIED BY '",
                                {
                                    "Ref": "DbMasterPassword"
                                },
                                "'\"\n",
                                "mysql -u ",
                                {
                                    "Ref": "DbMasterUsername"
                                },
                                " -p",
                                {
                                    "Ref": "DbMasterPassword"
                                },
                                " -e \"GRANT ALL PRIVILEGES ON *.* TO '",
                                {
                                    "Ref": "DbMasterUsername"
                                },
                                "'@'%' WITH GRANT OPTION\"\n",
                                "mysql -u ",
                                {
                                    "Ref": "DbMasterUsername"
                                },
                                " -p",
                                {
                                    "Ref": "DbMasterPassword"
                                },
                                " -e \"FLUSH PRIVILEGES\"\n",
                                "mysql -u ",
                                {
                                    "Ref": "DbMasterUsername"
                                },
                                " -p",
                                {
                                    "Ref": "DbMasterPassword"
                                },
                                " -e \"CREATE DATABASE ",
                                {
                                    "Ref": "DbName"
                                },
                                "\"\n",
                                "service mysqld start\n",
                                "\n"
                            ]
                        ]
                    }
                }
            },
            "Metadata": {
                "AWS::CloudFormation::Designer": {
                    "id": "9d115137-491a-4b4f-95cd-7f6d606227bb"
                }
            }
        },
        "PublicElasticLoadBalancer": {
            "Type": "AWS::ElasticLoadBalancing::LoadBalancer",
            "Properties": {
                "Listeners": [
                    {
                        "LoadBalancerPort": "80",
                        "InstancePort": "80",
                        "Protocol": "HTTP"
                    }
                ],
                "HealthCheck": {
                    "Target": "HTTP:80/",
                    "HealthyThreshold": "3",
                    "UnhealthyThreshold": "10",
                    "Interval": "90",
                    "Timeout": "60"
                },
                "Subnets": [
                    {
                        "Ref": "PublicSubnet"
                    },
                    {
                        "Ref": "SecondPublicSubnet"
                    }
                ],
                "SecurityGroups": [
                    {
                        "Ref": "PublicLoadBalancerSecurityGroup"
                    }
                ]
            },
            "Metadata": {
                "AWS::CloudFormation::Designer": {
                    "id": "a519002e-2240-4e40-a81d-bf6895209fa5"
                }
            }
        },
        "PublicLoadBalancerSecurityGroup": {
            "Type": "AWS::EC2::SecurityGroup",
            "Properties": {
                "GroupDescription": "Public Elastic Load Balancing security group with HTTP access on port 80 from the Internet",
                "SecurityGroupIngress": [
                    {
                        "IpProtocol": "tcp",
                        "FromPort": "80",
                        "ToPort": "80",
                        "CidrIp": "0.0.0.0/0"
                    }
                ],
                "SecurityGroupEgress": [
                    {
                        "IpProtocol": "tcp",
                        "FromPort": "80",
                        "ToPort": "80",
                        "CidrIp": "0.0.0.0/0"
                    }
                ],
                "VpcId": {
                    "Ref": "myVPC"
                }
            },
            "Metadata": {
                "AWS::CloudFormation::Designer": {
                    "id": "43f3fdec-f533-46b2-9269-414e72db40f3"
                }
            }
        }
    },
    "Metadata": {
        "AWS::CloudFormation::Designer": {
            "86a9b39b-9782-40e1-af9c-6bd4dfd203ab": {
                "size": {
                    "width": 1080,
                    "height": 840
                },
                "position": {
                    "x": 60,
                    "y": 180
                },
                "z": 1,
                "embeds": [
                    "43f3fdec-f533-46b2-9269-414e72db40f3",
                    "6a6b662d-1595-43b2-ba88-bf6156419099",
                    "eb6d3441-50de-4748-9acd-6534f6b59e0a",
                    "68ea407a-1664-4e35-bcb8-768a00f9310c",
                    "1c20fa3f-d3aa-47a8-b5e3-2b0d27709bbb",
                    "93d17258-33ab-4dde-a178-3c32b522ebb6",
                    "b07b75c0-98f2-43d3-90c1-bfa62f94e476"
                ]
            },
            "b07b75c0-98f2-43d3-90c1-bfa62f94e476": {
                "size": {
                    "width": 480,
                    "height": 330
                },
                "position": {
                    "x": 510,
                    "y": 330
                },
                "z": 2,
                "parent": "86a9b39b-9782-40e1-af9c-6bd4dfd203ab",
                "embeds": [
                    "b4faced5-8510-4a3e-b180-ce8220d82f2e",
                    "a519002e-2240-4e40-a81d-bf6895209fa5",
                    "b6c42c6b-cfd3-4914-874e-2be2342c7436"
                ],
                "iscontainedinside": [
                    "86a9b39b-9782-40e1-af9c-6bd4dfd203ab",
                    "86a9b39b-9782-40e1-af9c-6bd4dfd203ab",
                    "86a9b39b-9782-40e1-af9c-6bd4dfd203ab",
                    "86a9b39b-9782-40e1-af9c-6bd4dfd203ab",
                    "86a9b39b-9782-40e1-af9c-6bd4dfd203ab",
                    "86a9b39b-9782-40e1-af9c-6bd4dfd203ab",
                    "86a9b39b-9782-40e1-af9c-6bd4dfd203ab",
                    "86a9b39b-9782-40e1-af9c-6bd4dfd203ab",
                    "86a9b39b-9782-40e1-af9c-6bd4dfd203ab",
                    "86a9b39b-9782-40e1-af9c-6bd4dfd203ab",
                    "86a9b39b-9782-40e1-af9c-6bd4dfd203ab",
                    "86a9b39b-9782-40e1-af9c-6bd4dfd203ab",
                    "86a9b39b-9782-40e1-af9c-6bd4dfd203ab",
                    "86a9b39b-9782-40e1-af9c-6bd4dfd203ab",
                    "86a9b39b-9782-40e1-af9c-6bd4dfd203ab",
                    "86a9b39b-9782-40e1-af9c-6bd4dfd203ab",
                    "86a9b39b-9782-40e1-af9c-6bd4dfd203ab",
                    "86a9b39b-9782-40e1-af9c-6bd4dfd203ab",
                    "86a9b39b-9782-40e1-af9c-6bd4dfd203ab",
                    "86a9b39b-9782-40e1-af9c-6bd4dfd203ab",
                    "86a9b39b-9782-40e1-af9c-6bd4dfd203ab",
                    "86a9b39b-9782-40e1-af9c-6bd4dfd203ab",
                    "86a9b39b-9782-40e1-af9c-6bd4dfd203ab",
                    "86a9b39b-9782-40e1-af9c-6bd4dfd203ab",
                    "86a9b39b-9782-40e1-af9c-6bd4dfd203ab",
                    "86a9b39b-9782-40e1-af9c-6bd4dfd203ab",
                    "86a9b39b-9782-40e1-af9c-6bd4dfd203ab",
                    "86a9b39b-9782-40e1-af9c-6bd4dfd203ab",
                    "86a9b39b-9782-40e1-af9c-6bd4dfd203ab",
                    "86a9b39b-9782-40e1-af9c-6bd4dfd203ab",
                    "86a9b39b-9782-40e1-af9c-6bd4dfd203ab",
                    "86a9b39b-9782-40e1-af9c-6bd4dfd203ab",
                    "86a9b39b-9782-40e1-af9c-6bd4dfd203ab",
                    "86a9b39b-9782-40e1-af9c-6bd4dfd203ab",
                    "86a9b39b-9782-40e1-af9c-6bd4dfd203ab",
                    "86a9b39b-9782-40e1-af9c-6bd4dfd203ab",
                    "86a9b39b-9782-40e1-af9c-6bd4dfd203ab",
                    "86a9b39b-9782-40e1-af9c-6bd4dfd203ab",
                    "86a9b39b-9782-40e1-af9c-6bd4dfd203ab",
                    "86a9b39b-9782-40e1-af9c-6bd4dfd203ab",
                    "86a9b39b-9782-40e1-af9c-6bd4dfd203ab",
                    "86a9b39b-9782-40e1-af9c-6bd4dfd203ab",
                    "86a9b39b-9782-40e1-af9c-6bd4dfd203ab",
                    "86a9b39b-9782-40e1-af9c-6bd4dfd203ab",
                    "86a9b39b-9782-40e1-af9c-6bd4dfd203ab",
                    "86a9b39b-9782-40e1-af9c-6bd4dfd203ab",
                    "86a9b39b-9782-40e1-af9c-6bd4dfd203ab",
                    "86a9b39b-9782-40e1-af9c-6bd4dfd203ab",
                    "86a9b39b-9782-40e1-af9c-6bd4dfd203ab",
                    "86a9b39b-9782-40e1-af9c-6bd4dfd203ab",
                    "86a9b39b-9782-40e1-af9c-6bd4dfd203ab",
                    "86a9b39b-9782-40e1-af9c-6bd4dfd203ab",
                    "86a9b39b-9782-40e1-af9c-6bd4dfd203ab",
                    "86a9b39b-9782-40e1-af9c-6bd4dfd203ab",
                    "86a9b39b-9782-40e1-af9c-6bd4dfd203ab",
                    "86a9b39b-9782-40e1-af9c-6bd4dfd203ab",
                    "86a9b39b-9782-40e1-af9c-6bd4dfd203ab",
                    "86a9b39b-9782-40e1-af9c-6bd4dfd203ab",
                    "86a9b39b-9782-40e1-af9c-6bd4dfd203ab"
                ]
            },
            "eb6d3441-50de-4748-9acd-6534f6b59e0a": {
                "size": {
                    "width": 60,
                    "height": 60
                },
                "position": {
                    "x": 600,
                    "y": 210
                },
                "z": 2,
                "parent": "86a9b39b-9782-40e1-af9c-6bd4dfd203ab",
                "embeds": [],
                "iscontainedinside": [
                    "86a9b39b-9782-40e1-af9c-6bd4dfd203ab",
                    "86a9b39b-9782-40e1-af9c-6bd4dfd203ab",
                    "86a9b39b-9782-40e1-af9c-6bd4dfd203ab",
                    "86a9b39b-9782-40e1-af9c-6bd4dfd203ab",
                    "86a9b39b-9782-40e1-af9c-6bd4dfd203ab",
                    "86a9b39b-9782-40e1-af9c-6bd4dfd203ab",
                    "86a9b39b-9782-40e1-af9c-6bd4dfd203ab",
                    "86a9b39b-9782-40e1-af9c-6bd4dfd203ab",
                    "86a9b39b-9782-40e1-af9c-6bd4dfd203ab",
                    "86a9b39b-9782-40e1-af9c-6bd4dfd203ab",
                    "86a9b39b-9782-40e1-af9c-6bd4dfd203ab",
                    "86a9b39b-9782-40e1-af9c-6bd4dfd203ab",
                    "86a9b39b-9782-40e1-af9c-6bd4dfd203ab",
                    "86a9b39b-9782-40e1-af9c-6bd4dfd203ab",
                    "86a9b39b-9782-40e1-af9c-6bd4dfd203ab",
                    "86a9b39b-9782-40e1-af9c-6bd4dfd203ab",
                    "86a9b39b-9782-40e1-af9c-6bd4dfd203ab",
                    "86a9b39b-9782-40e1-af9c-6bd4dfd203ab",
                    "86a9b39b-9782-40e1-af9c-6bd4dfd203ab",
                    "86a9b39b-9782-40e1-af9c-6bd4dfd203ab",
                    "86a9b39b-9782-40e1-af9c-6bd4dfd203ab",
                    "86a9b39b-9782-40e1-af9c-6bd4dfd203ab",
                    "86a9b39b-9782-40e1-af9c-6bd4dfd203ab",
                    "86a9b39b-9782-40e1-af9c-6bd4dfd203ab",
                    "86a9b39b-9782-40e1-af9c-6bd4dfd203ab",
                    "86a9b39b-9782-40e1-af9c-6bd4dfd203ab",
                    "86a9b39b-9782-40e1-af9c-6bd4dfd203ab",
                    "86a9b39b-9782-40e1-af9c-6bd4dfd203ab",
                    "86a9b39b-9782-40e1-af9c-6bd4dfd203ab",
                    "86a9b39b-9782-40e1-af9c-6bd4dfd203ab",
                    "86a9b39b-9782-40e1-af9c-6bd4dfd203ab",
                    "86a9b39b-9782-40e1-af9c-6bd4dfd203ab",
                    "86a9b39b-9782-40e1-af9c-6bd4dfd203ab",
                    "86a9b39b-9782-40e1-af9c-6bd4dfd203ab",
                    "86a9b39b-9782-40e1-af9c-6bd4dfd203ab",
                    "86a9b39b-9782-40e1-af9c-6bd4dfd203ab",
                    "86a9b39b-9782-40e1-af9c-6bd4dfd203ab",
                    "86a9b39b-9782-40e1-af9c-6bd4dfd203ab",
                    "86a9b39b-9782-40e1-af9c-6bd4dfd203ab",
                    "86a9b39b-9782-40e1-af9c-6bd4dfd203ab",
                    "86a9b39b-9782-40e1-af9c-6bd4dfd203ab",
                    "86a9b39b-9782-40e1-af9c-6bd4dfd203ab",
                    "86a9b39b-9782-40e1-af9c-6bd4dfd203ab",
                    "86a9b39b-9782-40e1-af9c-6bd4dfd203ab",
                    "86a9b39b-9782-40e1-af9c-6bd4dfd203ab",
                    "86a9b39b-9782-40e1-af9c-6bd4dfd203ab",
                    "86a9b39b-9782-40e1-af9c-6bd4dfd203ab",
                    "86a9b39b-9782-40e1-af9c-6bd4dfd203ab",
                    "86a9b39b-9782-40e1-af9c-6bd4dfd203ab",
                    "86a9b39b-9782-40e1-af9c-6bd4dfd203ab",
                    "86a9b39b-9782-40e1-af9c-6bd4dfd203ab",
                    "86a9b39b-9782-40e1-af9c-6bd4dfd203ab",
                    "86a9b39b-9782-40e1-af9c-6bd4dfd203ab",
                    "86a9b39b-9782-40e1-af9c-6bd4dfd203ab",
                    "86a9b39b-9782-40e1-af9c-6bd4dfd203ab",
                    "86a9b39b-9782-40e1-af9c-6bd4dfd203ab",
                    "86a9b39b-9782-40e1-af9c-6bd4dfd203ab"
                ]
            },
            "c33c9ece-fa7c-411c-8da5-3fe9dedd9f60": {
                "size": {
                    "width": 60,
                    "height": 60
                },
                "position": {
                    "x": 60,
                    "y": 90
                },
                "z": 1,
                "embeds": []
            },
            "c5ebb5f1-1732-4b68-8407-62027ccf1ffb": {
                "source": {
                    "id": "86a9b39b-9782-40e1-af9c-6bd4dfd203ab"
                },
                "target": {
                    "id": "c33c9ece-fa7c-411c-8da5-3fe9dedd9f60"
                },
                "z": 1
            },
            "68ea407a-1664-4e35-bcb8-768a00f9310c": {
                "size": {
                    "width": 270,
                    "height": 360
                },
                "position": {
                    "x": 180,
                    "y": 270
                },
                "z": 2,
                "parent": "86a9b39b-9782-40e1-af9c-6bd4dfd203ab",
                "embeds": [
                    "658e2380-aea6-409c-9ca8-b39654110e91"
                ],
                "iscontainedinside": [
                    "86a9b39b-9782-40e1-af9c-6bd4dfd203ab",
                    "86a9b39b-9782-40e1-af9c-6bd4dfd203ab",
                    "86a9b39b-9782-40e1-af9c-6bd4dfd203ab",
                    "86a9b39b-9782-40e1-af9c-6bd4dfd203ab",
                    "86a9b39b-9782-40e1-af9c-6bd4dfd203ab",
                    "86a9b39b-9782-40e1-af9c-6bd4dfd203ab",
                    "86a9b39b-9782-40e1-af9c-6bd4dfd203ab",
                    "86a9b39b-9782-40e1-af9c-6bd4dfd203ab",
                    "86a9b39b-9782-40e1-af9c-6bd4dfd203ab",
                    "86a9b39b-9782-40e1-af9c-6bd4dfd203ab",
                    "86a9b39b-9782-40e1-af9c-6bd4dfd203ab",
                    "86a9b39b-9782-40e1-af9c-6bd4dfd203ab",
                    "86a9b39b-9782-40e1-af9c-6bd4dfd203ab",
                    "86a9b39b-9782-40e1-af9c-6bd4dfd203ab",
                    "86a9b39b-9782-40e1-af9c-6bd4dfd203ab",
                    "86a9b39b-9782-40e1-af9c-6bd4dfd203ab",
                    "86a9b39b-9782-40e1-af9c-6bd4dfd203ab",
                    "86a9b39b-9782-40e1-af9c-6bd4dfd203ab",
                    "86a9b39b-9782-40e1-af9c-6bd4dfd203ab",
                    "86a9b39b-9782-40e1-af9c-6bd4dfd203ab",
                    "86a9b39b-9782-40e1-af9c-6bd4dfd203ab",
                    "86a9b39b-9782-40e1-af9c-6bd4dfd203ab",
                    "86a9b39b-9782-40e1-af9c-6bd4dfd203ab",
                    "86a9b39b-9782-40e1-af9c-6bd4dfd203ab",
                    "86a9b39b-9782-40e1-af9c-6bd4dfd203ab",
                    "86a9b39b-9782-40e1-af9c-6bd4dfd203ab",
                    "86a9b39b-9782-40e1-af9c-6bd4dfd203ab",
                    "86a9b39b-9782-40e1-af9c-6bd4dfd203ab",
                    "86a9b39b-9782-40e1-af9c-6bd4dfd203ab",
                    "86a9b39b-9782-40e1-af9c-6bd4dfd203ab",
                    "86a9b39b-9782-40e1-af9c-6bd4dfd203ab",
                    "86a9b39b-9782-40e1-af9c-6bd4dfd203ab",
                    "86a9b39b-9782-40e1-af9c-6bd4dfd203ab",
                    "86a9b39b-9782-40e1-af9c-6bd4dfd203ab",
                    "86a9b39b-9782-40e1-af9c-6bd4dfd203ab",
                    "86a9b39b-9782-40e1-af9c-6bd4dfd203ab",
                    "86a9b39b-9782-40e1-af9c-6bd4dfd203ab",
                    "86a9b39b-9782-40e1-af9c-6bd4dfd203ab",
                    "86a9b39b-9782-40e1-af9c-6bd4dfd203ab",
                    "86a9b39b-9782-40e1-af9c-6bd4dfd203ab",
                    "86a9b39b-9782-40e1-af9c-6bd4dfd203ab",
                    "86a9b39b-9782-40e1-af9c-6bd4dfd203ab",
                    "86a9b39b-9782-40e1-af9c-6bd4dfd203ab",
                    "86a9b39b-9782-40e1-af9c-6bd4dfd203ab",
                    "86a9b39b-9782-40e1-af9c-6bd4dfd203ab",
                    "86a9b39b-9782-40e1-af9c-6bd4dfd203ab",
                    "86a9b39b-9782-40e1-af9c-6bd4dfd203ab",
                    "86a9b39b-9782-40e1-af9c-6bd4dfd203ab",
                    "86a9b39b-9782-40e1-af9c-6bd4dfd203ab",
                    "86a9b39b-9782-40e1-af9c-6bd4dfd203ab",
                    "86a9b39b-9782-40e1-af9c-6bd4dfd203ab",
                    "86a9b39b-9782-40e1-af9c-6bd4dfd203ab",
                    "86a9b39b-9782-40e1-af9c-6bd4dfd203ab",
                    "86a9b39b-9782-40e1-af9c-6bd4dfd203ab",
                    "86a9b39b-9782-40e1-af9c-6bd4dfd203ab"
                ]
            },
            "658e2380-aea6-409c-9ca8-b39654110e91": {
                "size": {
                    "width": 60,
                    "height": 60
                },
                "position": {
                    "x": 210,
                    "y": 390
                },
                "z": 3,
                "parent": "68ea407a-1664-4e35-bcb8-768a00f9310c",
                "embeds": [],
                "isassociatedwith": [
                    "c33c9ece-fa7c-411c-8da5-3fe9dedd9f60"
                ],
                "iscontainedinside": [
                    "68ea407a-1664-4e35-bcb8-768a00f9310c",
                    "68ea407a-1664-4e35-bcb8-768a00f9310c",
                    "68ea407a-1664-4e35-bcb8-768a00f9310c",
                    "68ea407a-1664-4e35-bcb8-768a00f9310c",
                    "68ea407a-1664-4e35-bcb8-768a00f9310c",
                    "68ea407a-1664-4e35-bcb8-768a00f9310c",
                    "68ea407a-1664-4e35-bcb8-768a00f9310c",
                    "68ea407a-1664-4e35-bcb8-768a00f9310c",
                    "68ea407a-1664-4e35-bcb8-768a00f9310c",
                    "68ea407a-1664-4e35-bcb8-768a00f9310c",
                    "68ea407a-1664-4e35-bcb8-768a00f9310c",
                    "68ea407a-1664-4e35-bcb8-768a00f9310c",
                    "68ea407a-1664-4e35-bcb8-768a00f9310c",
                    "68ea407a-1664-4e35-bcb8-768a00f9310c",
                    "68ea407a-1664-4e35-bcb8-768a00f9310c",
                    "68ea407a-1664-4e35-bcb8-768a00f9310c",
                    "68ea407a-1664-4e35-bcb8-768a00f9310c",
                    "68ea407a-1664-4e35-bcb8-768a00f9310c",
                    "68ea407a-1664-4e35-bcb8-768a00f9310c",
                    "68ea407a-1664-4e35-bcb8-768a00f9310c",
                    "68ea407a-1664-4e35-bcb8-768a00f9310c",
                    "68ea407a-1664-4e35-bcb8-768a00f9310c",
                    "68ea407a-1664-4e35-bcb8-768a00f9310c",
                    "68ea407a-1664-4e35-bcb8-768a00f9310c",
                    "68ea407a-1664-4e35-bcb8-768a00f9310c",
                    "68ea407a-1664-4e35-bcb8-768a00f9310c",
                    "68ea407a-1664-4e35-bcb8-768a00f9310c",
                    "68ea407a-1664-4e35-bcb8-768a00f9310c",
                    "68ea407a-1664-4e35-bcb8-768a00f9310c",
                    "68ea407a-1664-4e35-bcb8-768a00f9310c",
                    "68ea407a-1664-4e35-bcb8-768a00f9310c",
                    "68ea407a-1664-4e35-bcb8-768a00f9310c",
                    "68ea407a-1664-4e35-bcb8-768a00f9310c",
                    "68ea407a-1664-4e35-bcb8-768a00f9310c",
                    "68ea407a-1664-4e35-bcb8-768a00f9310c",
                    "68ea407a-1664-4e35-bcb8-768a00f9310c",
                    "68ea407a-1664-4e35-bcb8-768a00f9310c",
                    "68ea407a-1664-4e35-bcb8-768a00f9310c",
                    "68ea407a-1664-4e35-bcb8-768a00f9310c",
                    "68ea407a-1664-4e35-bcb8-768a00f9310c",
                    "68ea407a-1664-4e35-bcb8-768a00f9310c",
                    "68ea407a-1664-4e35-bcb8-768a00f9310c",
                    "68ea407a-1664-4e35-bcb8-768a00f9310c",
                    "68ea407a-1664-4e35-bcb8-768a00f9310c",
                    "68ea407a-1664-4e35-bcb8-768a00f9310c",
                    "68ea407a-1664-4e35-bcb8-768a00f9310c",
                    "68ea407a-1664-4e35-bcb8-768a00f9310c",
                    "68ea407a-1664-4e35-bcb8-768a00f9310c",
                    "68ea407a-1664-4e35-bcb8-768a00f9310c",
                    "68ea407a-1664-4e35-bcb8-768a00f9310c",
                    "68ea407a-1664-4e35-bcb8-768a00f9310c",
                    "68ea407a-1664-4e35-bcb8-768a00f9310c",
                    "68ea407a-1664-4e35-bcb8-768a00f9310c",
                    "68ea407a-1664-4e35-bcb8-768a00f9310c"
                ],
                "dependson": [
                    "c5ebb5f1-1732-4b68-8407-62027ccf1ffb"
                ]
            },
            "551a7c0a-9e61-4aa7-9724-fe74bbb133c8": {
                "source": {
                    "id": "68ea407a-1664-4e35-bcb8-768a00f9310c"
                },
                "target": {
                    "id": "b07b75c0-98f2-43d3-90c1-bfa62f94e476"
                },
                "z": 2
            },
            "b6c42c6b-cfd3-4914-874e-2be2342c7436": {
                "size": {
                    "width": 60,
                    "height": 60
                },
                "position": {
                    "x": 540,
                    "y": 360
                },
                "z": 3,
                "parent": "b07b75c0-98f2-43d3-90c1-bfa62f94e476",
                "embeds": [],
                "isassociatedwith": [
                    "a519002e-2240-4e40-a81d-bf6895209fa5",
                    "b4faced5-8510-4a3e-b180-ce8220d82f2e"
                ],
                "iscontainedinside": [
                    "b07b75c0-98f2-43d3-90c1-bfa62f94e476",
                    "b07b75c0-98f2-43d3-90c1-bfa62f94e476",
                    "b07b75c0-98f2-43d3-90c1-bfa62f94e476",
                    "b07b75c0-98f2-43d3-90c1-bfa62f94e476",
                    "b07b75c0-98f2-43d3-90c1-bfa62f94e476",
                    "b07b75c0-98f2-43d3-90c1-bfa62f94e476",
                    "b07b75c0-98f2-43d3-90c1-bfa62f94e476",
                    "b07b75c0-98f2-43d3-90c1-bfa62f94e476",
                    "b07b75c0-98f2-43d3-90c1-bfa62f94e476",
                    "b07b75c0-98f2-43d3-90c1-bfa62f94e476",
                    "b07b75c0-98f2-43d3-90c1-bfa62f94e476",
                    "b07b75c0-98f2-43d3-90c1-bfa62f94e476",
                    "b07b75c0-98f2-43d3-90c1-bfa62f94e476",
                    "b07b75c0-98f2-43d3-90c1-bfa62f94e476",
                    "b07b75c0-98f2-43d3-90c1-bfa62f94e476",
                    "b07b75c0-98f2-43d3-90c1-bfa62f94e476",
                    "b07b75c0-98f2-43d3-90c1-bfa62f94e476",
                    "b07b75c0-98f2-43d3-90c1-bfa62f94e476",
                    "b07b75c0-98f2-43d3-90c1-bfa62f94e476",
                    "b07b75c0-98f2-43d3-90c1-bfa62f94e476",
                    "b07b75c0-98f2-43d3-90c1-bfa62f94e476",
                    "b07b75c0-98f2-43d3-90c1-bfa62f94e476",
                    "b07b75c0-98f2-43d3-90c1-bfa62f94e476",
                    "b07b75c0-98f2-43d3-90c1-bfa62f94e476",
                    "b07b75c0-98f2-43d3-90c1-bfa62f94e476",
                    "b07b75c0-98f2-43d3-90c1-bfa62f94e476",
                    "b07b75c0-98f2-43d3-90c1-bfa62f94e476",
                    "b07b75c0-98f2-43d3-90c1-bfa62f94e476",
                    "b07b75c0-98f2-43d3-90c1-bfa62f94e476",
                    "b07b75c0-98f2-43d3-90c1-bfa62f94e476",
                    "b07b75c0-98f2-43d3-90c1-bfa62f94e476",
                    "b07b75c0-98f2-43d3-90c1-bfa62f94e476",
                    "b07b75c0-98f2-43d3-90c1-bfa62f94e476",
                    "b07b75c0-98f2-43d3-90c1-bfa62f94e476",
                    "b07b75c0-98f2-43d3-90c1-bfa62f94e476"
                ],
                "dependson": [
                    "658e2380-aea6-409c-9ca8-b39654110e91",
                    "9d115137-491a-4b4f-95cd-7f6d606227bb"
                ]
            },
            "b4faced5-8510-4a3e-b180-ce8220d82f2e": {
                "size": {
                    "width": 60,
                    "height": 60
                },
                "position": {
                    "x": 600,
                    "y": 390
                },
                "z": 3,
                "parent": "b07b75c0-98f2-43d3-90c1-bfa62f94e476",
                "embeds": [],
                "isassociatedwith": [
                    "eb6d3441-50de-4748-9acd-6534f6b59e0a"
                ]
            },
            "a519002e-2240-4e40-a81d-bf6895209fa5": {
                "size": {
                    "width": 60,
                    "height": 60
                },
                "position": {
                    "x": 510,
                    "y": 480
                },
                "z": 3,
                "parent": "b07b75c0-98f2-43d3-90c1-bfa62f94e476",
                "embeds": [],
                "isassociatedwith": [
                    "43f3fdec-f533-46b2-9269-414e72db40f3"
                ],
                "iscontainedinside": [
                    "b07b75c0-98f2-43d3-90c1-bfa62f94e476",
                    "b07b75c0-98f2-43d3-90c1-bfa62f94e476",
                    "b07b75c0-98f2-43d3-90c1-bfa62f94e476",
                    "b07b75c0-98f2-43d3-90c1-bfa62f94e476",
                    "b07b75c0-98f2-43d3-90c1-bfa62f94e476",
                    "b07b75c0-98f2-43d3-90c1-bfa62f94e476",
                    "b07b75c0-98f2-43d3-90c1-bfa62f94e476",
                    "b07b75c0-98f2-43d3-90c1-bfa62f94e476",
                    "b07b75c0-98f2-43d3-90c1-bfa62f94e476",
                    "b07b75c0-98f2-43d3-90c1-bfa62f94e476",
                    "b07b75c0-98f2-43d3-90c1-bfa62f94e476",
                    "b07b75c0-98f2-43d3-90c1-bfa62f94e476",
                    "b07b75c0-98f2-43d3-90c1-bfa62f94e476",
                    "b07b75c0-98f2-43d3-90c1-bfa62f94e476",
                    "b07b75c0-98f2-43d3-90c1-bfa62f94e476",
                    "b07b75c0-98f2-43d3-90c1-bfa62f94e476",
                    "b07b75c0-98f2-43d3-90c1-bfa62f94e476",
                    "b07b75c0-98f2-43d3-90c1-bfa62f94e476",
                    "b07b75c0-98f2-43d3-90c1-bfa62f94e476",
                    "b07b75c0-98f2-43d3-90c1-bfa62f94e476",
                    "b07b75c0-98f2-43d3-90c1-bfa62f94e476",
                    "b07b75c0-98f2-43d3-90c1-bfa62f94e476",
                    "b07b75c0-98f2-43d3-90c1-bfa62f94e476",
                    "b07b75c0-98f2-43d3-90c1-bfa62f94e476",
                    "b07b75c0-98f2-43d3-90c1-bfa62f94e476",
                    "b07b75c0-98f2-43d3-90c1-bfa62f94e476",
                    "b07b75c0-98f2-43d3-90c1-bfa62f94e476",
                    "b07b75c0-98f2-43d3-90c1-bfa62f94e476",
                    "b07b75c0-98f2-43d3-90c1-bfa62f94e476",
                    "b07b75c0-98f2-43d3-90c1-bfa62f94e476",
                    "b07b75c0-98f2-43d3-90c1-bfa62f94e476",
                    "b07b75c0-98f2-43d3-90c1-bfa62f94e476",
                    "b07b75c0-98f2-43d3-90c1-bfa62f94e476",
                    "b07b75c0-98f2-43d3-90c1-bfa62f94e476",
                    "93d17258-33ab-4dde-a178-3c32b522ebb6"
                ]
            },
            "43f3fdec-f533-46b2-9269-414e72db40f3": {
                "size": {
                    "width": 60,
                    "height": 60
                },
                "position": {
                    "x": 1020,
                    "y": 510
                },
                "z": 2,
                "parent": "86a9b39b-9782-40e1-af9c-6bd4dfd203ab",
                "embeds": [],
                "iscontainedinside": [
                    "86a9b39b-9782-40e1-af9c-6bd4dfd203ab",
                    "86a9b39b-9782-40e1-af9c-6bd4dfd203ab",
                    "86a9b39b-9782-40e1-af9c-6bd4dfd203ab",
                    "86a9b39b-9782-40e1-af9c-6bd4dfd203ab",
                    "86a9b39b-9782-40e1-af9c-6bd4dfd203ab",
                    "86a9b39b-9782-40e1-af9c-6bd4dfd203ab",
                    "86a9b39b-9782-40e1-af9c-6bd4dfd203ab",
                    "86a9b39b-9782-40e1-af9c-6bd4dfd203ab",
                    "86a9b39b-9782-40e1-af9c-6bd4dfd203ab",
                    "86a9b39b-9782-40e1-af9c-6bd4dfd203ab",
                    "86a9b39b-9782-40e1-af9c-6bd4dfd203ab",
                    "86a9b39b-9782-40e1-af9c-6bd4dfd203ab",
                    "86a9b39b-9782-40e1-af9c-6bd4dfd203ab",
                    "86a9b39b-9782-40e1-af9c-6bd4dfd203ab",
                    "86a9b39b-9782-40e1-af9c-6bd4dfd203ab",
                    "86a9b39b-9782-40e1-af9c-6bd4dfd203ab",
                    "86a9b39b-9782-40e1-af9c-6bd4dfd203ab",
                    "86a9b39b-9782-40e1-af9c-6bd4dfd203ab",
                    "86a9b39b-9782-40e1-af9c-6bd4dfd203ab",
                    "86a9b39b-9782-40e1-af9c-6bd4dfd203ab",
                    "86a9b39b-9782-40e1-af9c-6bd4dfd203ab",
                    "86a9b39b-9782-40e1-af9c-6bd4dfd203ab",
                    "86a9b39b-9782-40e1-af9c-6bd4dfd203ab",
                    "86a9b39b-9782-40e1-af9c-6bd4dfd203ab",
                    "86a9b39b-9782-40e1-af9c-6bd4dfd203ab",
                    "86a9b39b-9782-40e1-af9c-6bd4dfd203ab",
                    "86a9b39b-9782-40e1-af9c-6bd4dfd203ab",
                    "86a9b39b-9782-40e1-af9c-6bd4dfd203ab",
                    "86a9b39b-9782-40e1-af9c-6bd4dfd203ab",
                    "86a9b39b-9782-40e1-af9c-6bd4dfd203ab",
                    "86a9b39b-9782-40e1-af9c-6bd4dfd203ab",
                    "86a9b39b-9782-40e1-af9c-6bd4dfd203ab",
                    "86a9b39b-9782-40e1-af9c-6bd4dfd203ab"
                ]
            },
            "6a6b662d-1595-43b2-ba88-bf6156419099": {
                "size": {
                    "width": 60,
                    "height": 60
                },
                "position": {
                    "x": 460,
                    "y": 900
                },
                "z": 2,
                "parent": "86a9b39b-9782-40e1-af9c-6bd4dfd203ab",
                "embeds": [],
                "iscontainedinside": [
                    "86a9b39b-9782-40e1-af9c-6bd4dfd203ab",
                    "86a9b39b-9782-40e1-af9c-6bd4dfd203ab",
                    "86a9b39b-9782-40e1-af9c-6bd4dfd203ab",
                    "86a9b39b-9782-40e1-af9c-6bd4dfd203ab",
                    "86a9b39b-9782-40e1-af9c-6bd4dfd203ab",
                    "86a9b39b-9782-40e1-af9c-6bd4dfd203ab",
                    "86a9b39b-9782-40e1-af9c-6bd4dfd203ab",
                    "86a9b39b-9782-40e1-af9c-6bd4dfd203ab"
                ]
            },
            "1c20fa3f-d3aa-47a8-b5e3-2b0d27709bbb": {
                "size": {
                    "width": 240,
                    "height": 240
                },
                "position": {
                    "x": 90,
                    "y": 660
                },
                "z": 2,
                "parent": "86a9b39b-9782-40e1-af9c-6bd4dfd203ab",
                "embeds": [
                    "9d115137-491a-4b4f-95cd-7f6d606227bb"
                ],
                "iscontainedinside": [
                    "86a9b39b-9782-40e1-af9c-6bd4dfd203ab",
                    "86a9b39b-9782-40e1-af9c-6bd4dfd203ab",
                    "86a9b39b-9782-40e1-af9c-6bd4dfd203ab",
                    "86a9b39b-9782-40e1-af9c-6bd4dfd203ab",
                    "86a9b39b-9782-40e1-af9c-6bd4dfd203ab",
                    "86a9b39b-9782-40e1-af9c-6bd4dfd203ab",
                    "86a9b39b-9782-40e1-af9c-6bd4dfd203ab",
                    "86a9b39b-9782-40e1-af9c-6bd4dfd203ab"
                ]
            },
            "9d115137-491a-4b4f-95cd-7f6d606227bb": {
                "size": {
                    "width": 60,
                    "height": 60
                },
                "position": {
                    "x": 120,
                    "y": 780
                },
                "z": 3,
                "parent": "1c20fa3f-d3aa-47a8-b5e3-2b0d27709bbb",
                "embeds": [],
                "isassociatedwith": [
                    "6a6b662d-1595-43b2-ba88-bf6156419099"
                ],
                "iscontainedinside": [
                    "1c20fa3f-d3aa-47a8-b5e3-2b0d27709bbb",
                    "1c20fa3f-d3aa-47a8-b5e3-2b0d27709bbb",
                    "1c20fa3f-d3aa-47a8-b5e3-2b0d27709bbb",
                    "1c20fa3f-d3aa-47a8-b5e3-2b0d27709bbb",
                    "1c20fa3f-d3aa-47a8-b5e3-2b0d27709bbb",
                    "1c20fa3f-d3aa-47a8-b5e3-2b0d27709bbb",
                    "1c20fa3f-d3aa-47a8-b5e3-2b0d27709bbb",
                    "1c20fa3f-d3aa-47a8-b5e3-2b0d27709bbb"
                ]
            },
            "3098bbe0-9256-4566-bfc5-198261062b8e": {
                "source": {
                    "id": "68ea407a-1664-4e35-bcb8-768a00f9310c"
                },
                "target": {
                    "id": "1c20fa3f-d3aa-47a8-b5e3-2b0d27709bbb"
                },
                "z": 2
            },
            "93d17258-33ab-4dde-a178-3c32b522ebb6": {
                "size": {
                    "width": 150,
                    "height": 150
                },
                "position": {
                    "x": 360,
                    "y": 690
                },
                "z": 2,
                "parent": "86a9b39b-9782-40e1-af9c-6bd4dfd203ab",
                "embeds": [],
                "iscontainedinside": [
                    "86a9b39b-9782-40e1-af9c-6bd4dfd203ab",
                    "86a9b39b-9782-40e1-af9c-6bd4dfd203ab",
                    "86a9b39b-9782-40e1-af9c-6bd4dfd203ab"
                ]
            },
            "f250766e-3a27-407c-9455-068310386f1a": {
                "source": {
                    "id": "68ea407a-1664-4e35-bcb8-768a00f9310c"
                },
                "target": {
                    "id": "93d17258-33ab-4dde-a178-3c32b522ebb6"
                },
                "z": 2
            }
        }
    },
    "Mappings": {
        "AWSInstanceType2Arch": {
            "t1.micro": {
                "Arch": "HVM64"
            },
            "t2.nano": {
                "Arch": "HVM64"
            },
            "t2.micro": {
                "Arch": "HVM64"
            },
            "t2.small": {
                "Arch": "HVM64"
            },
            "t2.medium": {
                "Arch": "HVM64"
            },
            "t2.large": {
                "Arch": "HVM64"
            },
            "m1.small": {
                "Arch": "HVM64"
            },
            "m1.medium": {
                "Arch": "HVM64"
            },
            "m1.large": {
                "Arch": "HVM64"
            },
            "m1.xlarge": {
                "Arch": "HVM64"
            },
            "m2.xlarge": {
                "Arch": "HVM64"
            },
            "m2.2xlarge": {
                "Arch": "HVM64"
            },
            "m2.4xlarge": {
                "Arch": "HVM64"
            },
            "m3.medium": {
                "Arch": "HVM64"
            },
            "m3.large": {
                "Arch": "HVM64"
            },
            "m3.xlarge": {
                "Arch": "HVM64"
            },
            "m3.2xlarge": {
                "Arch": "HVM64"
            },
            "m4.large": {
                "Arch": "HVM64"
            },
            "m4.xlarge": {
                "Arch": "HVM64"
            },
            "m4.2xlarge": {
                "Arch": "HVM64"
            },
            "m4.4xlarge": {
                "Arch": "HVM64"
            },
            "m4.10xlarge": {
                "Arch": "HVM64"
            },
            "c1.medium": {
                "Arch": "HVM64"
            },
            "c1.xlarge": {
                "Arch": "HVM64"
            },
            "c3.large": {
                "Arch": "HVM64"
            },
            "c3.xlarge": {
                "Arch": "HVM64"
            },
            "c3.2xlarge": {
                "Arch": "HVM64"
            },
            "c3.4xlarge": {
                "Arch": "HVM64"
            },
            "c3.8xlarge": {
                "Arch": "HVM64"
            },
            "c4.large": {
                "Arch": "HVM64"
            },
            "c4.xlarge": {
                "Arch": "HVM64"
            },
            "c4.2xlarge": {
                "Arch": "HVM64"
            },
            "c4.4xlarge": {
                "Arch": "HVM64"
            },
            "c4.8xlarge": {
                "Arch": "HVM64"
            },
            "g2.2xlarge": {
                "Arch": "HVMG2"
            },
            "g2.8xlarge": {
                "Arch": "HVMG2"
            },
            "r3.large": {
                "Arch": "HVM64"
            },
            "r3.xlarge": {
                "Arch": "HVM64"
            },
            "r3.2xlarge": {
                "Arch": "HVM64"
            },
            "r3.4xlarge": {
                "Arch": "HVM64"
            },
            "r3.8xlarge": {
                "Arch": "HVM64"
            },
            "i2.xlarge": {
                "Arch": "HVM64"
            },
            "i2.2xlarge": {
                "Arch": "HVM64"
            },
            "i2.4xlarge": {
                "Arch": "HVM64"
            },
            "i2.8xlarge": {
                "Arch": "HVM64"
            },
            "d2.xlarge": {
                "Arch": "HVM64"
            },
            "d2.2xlarge": {
                "Arch": "HVM64"
            },
            "d2.4xlarge": {
                "Arch": "HVM64"
            },
            "d2.8xlarge": {
                "Arch": "HVM64"
            },
            "hi1.4xlarge": {
                "Arch": "HVM64"
            },
            "hs1.8xlarge": {
                "Arch": "HVM64"
            },
            "cr1.8xlarge": {
                "Arch": "HVM64"
            },
            "cc2.8xlarge": {
                "Arch": "HVM64"
            }
        },
        "AWSRegionArch2AMI": {
            "us-east-1": {
                "HVM64": "ami-0ff8a91507f77f867",
                "HVMG2": "ami-0a584ac55a7631c0c"
            },
            "us-west-2": {
                "HVM64": "ami-a0cfeed8",
                "HVMG2": "ami-0e09505bc235aa82d"
            },
            "us-west-1": {
                "HVM64": "ami-0bdb828fd58c52235",
                "HVMG2": "ami-066ee5fd4a9ef77f1"
            },
            "eu-west-1": {
                "HVM64": "ami-047bb4163c506cd98",
                "HVMG2": "ami-0a7c483d527806435"
            },
            "eu-west-2": {
                "HVM64": "ami-f976839e",
                "HVMG2": "NOT_SUPPORTED"
            },
            "eu-west-3": {
                "HVM64": "ami-0ebc281c20e89ba4b",
                "HVMG2": "NOT_SUPPORTED"
            },
            "eu-central-1": {
                "HVM64": "ami-0233214e13e500f77",
                "HVMG2": "ami-06223d46a6d0661c7"
            },
            "ap-northeast-1": {
                "HVM64": "ami-06cd52961ce9f0d85",
                "HVMG2": "ami-053cdd503598e4a9d"
            },
            "ap-northeast-2": {
                "HVM64": "ami-0a10b2721688ce9d2",
                "HVMG2": "NOT_SUPPORTED"
            },
            "ap-northeast-3": {
                "HVM64": "ami-0d98120a9fb693f07",
                "HVMG2": "NOT_SUPPORTED"
            },
            "ap-southeast-1": {
                "HVM64": "ami-08569b978cc4dfa10",
                "HVMG2": "ami-0be9df32ae9f92309"
            },
            "ap-southeast-2": {
                "HVM64": "ami-09b42976632b27e9b",
                "HVMG2": "ami-0a9ce9fecc3d1daf8"
            },
            "ap-south-1": {
                "HVM64": "ami-0912f71e06545ad88",
                "HVMG2": "ami-097b15e89dbdcfcf4"
            },
            "us-east-2": {
                "HVM64": "ami-0b59bfac6be064b78",
                "HVMG2": "NOT_SUPPORTED"
            },
            "ca-central-1": {
                "HVM64": "ami-0b18956f",
                "HVMG2": "NOT_SUPPORTED"
            },
            "sa-east-1": {
                "HVM64": "ami-07b14488da8ea02a0",
                "HVMG2": "NOT_SUPPORTED"
            },
            "cn-north-1": {
                "HVM64": "ami-0a4eaf6c4454eda75",
                "HVMG2": "NOT_SUPPORTED"
            },
            "cn-northwest-1": {
                "HVM64": "ami-6b6a7d09",
                "HVMG2": "NOT_SUPPORTED"
            }
        },
        "AWSRegionArch2AMIDB": {
            "us-east-1": {
                "HVM64": "ami-00068cd7555f543d5",
                "HVMG2": "ami-035240afa793cddbb"
            },
            "us-west-2": {
                "HVM64": "ami-0c5204531f799e0c6",
                "HVMG2": "ami-03b4aa59bf41f9ed4"
            },
            "us-west-1": {
                "HVM64": "ami-0b2d8d1abb76a53d8",
                "HVMG2": "NOT SUPPORTED"
            },
            "eu-west-1": {
                "HVM64": "ami-01f14919ba412de34",
                "HVMG2": "ami-031de832435c04744"
            },
            "eu-west-2": {
                "HVM64": "ami-05f37c3995fffb4fd",
                "HVMG2": "NOT_SUPPORTED"
            },
            "eu-west-3": {
                "HVM64": "ami-0e9e6ba6d3d38faa8",
                "HVMG2": "NOT_SUPPORTED"
            },
            "eu-central-1": {
                "HVM64": "ami-0d4c3eabb9e72650a",
                "HVMG2": "ami-04f770c0b56bdfb99"
            },
            "ap-northeast-1": {
                "HVM64": "ami-068a6cefc24c301d2",
                "HVMG2": "ami-0501686af2aa13b16"
            },
            "ap-northeast-2": {
                "HVM64": "ami-0d59ddf55cdda6e21",
                "HVMG2": "NOT_SUPPORTED"
            },
            "ap-southeast-1": {
                "HVM64": "ami-07539a31f72d244e7",
                "HVMG2": "ami-072a8da171a41d501"
            },
            "ap-southeast-2": {
                "HVM64": "ami-0119aa4d67e59007c",
                "HVMG2": "ami-0247d2faede737e91"
            },
            "ap-south-1": {
                "HVM64": "ami-0ce933e2ae91880d3",
                "HVMG2": "ami-0d6b4f51881ba4505"
            },
            "us-east-2": {
                "HVM64": "ami-0dacb0c129b49f529",
                "HVMG2": "ami-065b6220c7de34787"
            },
            "ca-central-1": {
                "HVM64": "ami-0ff24797826ebbcd5",
                "HVMG2": "NOT_SUPPORTED"
            },
            "sa-east-1": {
                "HVM64": "ami-07820a4443539a2b0",
                "HVMG2": "NOT_SUPPORTED"
            }
        }
    },
    "Outputs": {
        "URL": {
            "Value": {
                "Fn::GetAtt": [
                    "PublicElasticLoadBalancer",
                    "DNSName"
                ]
            },
            "Description": "Newly created application URL"
        },
        "DbPublicIP": {
            "Description": "Public IP address of the database EC2 instance",
            "Value": {
                "Fn::GetAtt": [
                    "DbInstance",
                    "PublicIp"
                ]
            }
        }
    }
}
